R Notebook 2
…
Here I create a new dataframe and I split the WorkToolsSelect column by “,” and then unnest().

tools <- tools %>%
  mutate(worktools = strsplit(WorkToolsSelect, split = ",")) %>%
  unnest()

tools %>% select(Respondent ,worktools)

## # A tibble: 47,409 x 2
##    Respondent worktools                              
##         <dbl> <chr>                                  
##  1          1 Amazon Web services                    
##  2          1 Oracle Data Mining/ Oracle R Enterprise
##  3          1 Perl                                   
##  4          2 Amazon Machine Learning                
##  5          2 Amazon Web services                    
##  6          2 Cloudera                               
##  7          2 Hadoop/Hive/Pig                        
##  8          2 Impala                                 
##  9          2 Java                                   
## 10          2 Mathematica                            
## # … with 47,399 more rows
…
