R Notebook
…
  Notebook 2

R Notebook

This is an R Markdown. I’m using it to show some examples of work done using R.

Nobel Prize Dataset

nobel %>%
  group_by(`Birth Country`) %>%
  summarise(total = n()) %>%
  arrange(desc(total)) %>% 
  mutate(percent = total/sum(total))

## # A tibble: 122 x 3
##    `Birth Country`          total percent
##    <chr>                    <int>   <dbl>
##  1 United States of America   276  0.285 
##  2 United Kingdom              88  0.0908
##  3 Germany                     70  0.0722
##  4 France                      53  0.0547
##  5 Sweden                      30  0.0310
##  6 Japan                       29  0.0299
##  7 <NA>                        26  0.0268
##  8 Russia                      20  0.0206
##  9 Netherlands                 19  0.0196
## 10 Canada                      18  0.0186
## # … with 112 more rows
…
nobel %>% group_by(`Birth Country`)

## # A tibble: 969 x 18
## # Groups:   Birth Country [122]
##     Year Category Prize Motivation `Prize Share` `Laureate ID`
##    <dbl> <chr>    <chr> <chr>      <chr>                 <dbl>
##  1  1901 Chemist… The … "\"in rec… 1/1                     160
##  2  1901 Literat… The … "\"in spe… 1/1                     569
##  3  1901 Medicine The … "\"for hi… 1/1                     293
##  4  1901 Peace    The … <NA>       1/2                     462
##  5  1901 Peace    The … <NA>       1/2                     463
##  6  1901 Physics  The … "\"in rec… 1/1                       1
##  7  1902 Chemist… The … "\"in rec… 1/1                     161
##  8  1902 Literat… The … "\"the gr… 1/1                     571
##  9  1902 Medicine The … "\"for hi… 1/1                     294
## 10  1902 Peace    The … <NA>       1/2                     464
## # … with 959 more rows, and 12 more variables: `Laureate Type` <chr>,
## #   `Full Name` <chr>, `Birth Date` <date>, `Birth City` <chr>, `Birth
## #   Country` <chr>, Sex <chr>, `Organization Name` <chr>, `Organization
## #   City` <chr>, `Organization Country` <chr>, `Death Date` <date>, `Death
## #   City` <chr>, `Death Country` <chr>
…
First woman to win a nobel prize

nobel %>%
  group_by(Year) %>%
  filter(Sex == "Female") %>%
  select(Year,Category, `Full Name`)

## # A tibble: 50 x 3
## # Groups:   Year [37]
##     Year Category   `Full Name`                                            
##    <dbl> <chr>      <chr>                                                  
##  1  1903 Physics    Marie Curie, née Sklodowska                            
##  2  1905 Peace      Baroness Bertha Sophie Felicita von Suttner, née Count…
##  3  1909 Literature Selma Ottilia Lovisa Lagerlöf                          
##  4  1911 Chemistry  Marie Curie, née Sklodowska                            
##  5  1926 Literature Grazia Deledda                                         
##  6  1928 Literature Sigrid Undset                                          
##  7  1931 Peace      Jane Addams                                            
##  8  1935 Chemistry  Irène Joliot-Curie                                     
##  9  1938 Literature Pearl Buck                                             
## 10  1945 Literature Gabriela Mistral                                       
## # … with 40 more rows

Repeat Winners

nobel %>%
  group_by(`Laureate ID`, `Full Name`) %>%
  count() %>%
  select(`Full Name`,n, `Laureate ID`) %>%
  filter(n > 1)

## # A tibble: 63 x 3
## # Groups:   Laureate ID, Full Name [63]
##    `Full Name`                     n `Laureate ID`
##    <chr>                       <int>         <dbl>
##  1 Marie Curie, née Sklodowska     2             6
##  2 Hideki Yukawa                   2            54
##  3 Walther Bothe                   2            62
##  4 John Bardeen                    2            66
##  5 Igor Yevgenyevich Tamm          2            71
##  6 Rudolf Ludwig Mössbauer         2            76
##  7 Abdus Salam                     2           114
##  8 Georges Charpak                 2           142
##  9 Claude Cohen-Tannoudji          2           153
## 10 Carl Bosch                      2           189
## # … with 53 more rows

Age of winners

nobel_age <- nobel %>% 
  mutate(age = (Year) - year(`Birth Date`))

nobel_age

## # A tibble: 969 x 23
##     Year Category Prize Motivation `Prize Share` `Laureate ID`
##    <dbl> <chr>    <chr> <chr>      <chr>                 <dbl>
##  1  1901 Chemist… The … "\"in rec… 1/1                     160
##  2  1901 Literat… The … "\"in spe… 1/1                     569
##  3  1901 Medicine The … "\"for hi… 1/1                     293
##  4  1901 Peace    The … <NA>       1/2                     462
##  5  1901 Peace    The … <NA>       1/2                     463
##  6  1901 Physics  The … "\"in rec… 1/1                       1
##  7  1902 Chemist… The … "\"in rec… 1/1                     161
##  8  1902 Literat… The … "\"the gr… 1/1                     571
##  9  1902 Medicine The … "\"for hi… 1/1                     294
## 10  1902 Peace    The … <NA>       1/2                     464
## # … with 959 more rows, and 17 more variables: `Laureate Type` <chr>,
## #   `Full Name` <chr>, `Birth Date` <date>, `Birth City` <chr>, `Birth
## #   Country` <chr>, Sex <chr>, `Organization Name` <chr>, `Organization
## #   City` <chr>, `Organization Country` <chr>, `Death Date` <date>, `Death
## #   City` <chr>, `Death Country` <chr>, usa_winner <dbl>, decade <dbl>,
## #   total <int>, female <lgl>, age <dbl>
…
