Text Analysis
…
riri_lyrics = riri_lyrics %>%
  unnest(tracks)

library(tidytext)
tidy_riri <- riri_lyrics %>%
  unnest_tokens(word, lyric) %>%
  anti_join(stop_words)

## Joining, by = "word"

tidy_riri %>%
  count(word, sort=TRUE)

## # A tibble: 2,225 x 2
##    word      n
##    <chr> <int>
##  1 love    652
##  2 yeah    484
##  3 baby    399
##  4 boy     260
##  5 night   250
##  6 wanna   235
##  7 ya      215
##  8 na      187
##  9 la      158
## 10 cake    155
## # ... with 2,215 more rows
…
