R for Data Science
…
tibble(
  a = lubridate::now() + runif(1e3) * 86400,
  b = lubridate::today() + runif(1e3) * 30,
  c = 1:1e3,
  d = runif(1e3),
  e = sample(letters, 1e3, replace = TRUE)
)

## # A tibble: 1,000 x 5
##    a                   b              c       d e    
##    <dttm>              <date>     <int>   <dbl> <chr>
##  1 2019-01-03 22:47:12 2019-01-22     1 0.780   y    
##  2 2019-01-04 00:20:53 2019-01-22     2 0.747   z    
##  3 2019-01-03 14:22:36 2019-01-31     3 0.351   s    
##  4 2019-01-04 00:53:51 2019-01-20     4 0.547   j    
##  5 2019-01-03 16:09:47 2019-01-04     5 0.293   k    
##  6 2019-01-03 22:03:13 2019-02-01     6 0.767   n    
##  7 2019-01-04 00:02:20 2019-01-24     7 0.604   t    
##  8 2019-01-03 18:44:44 2019-01-31     8 0.00428 d    
##  9 2019-01-04 12:23:46 2019-01-23     9 0.0183  v    
## 10 2019-01-03 19:31:02 2019-01-21    10 0.544   j    
## # ... with 990 more rows
…
## # A tibble: 4 x 3
##   person           treatment response
##   <chr>                <dbl>    <dbl>
## 1 Derrick Whitmore         1        7
## 2 Derrick Whitmore         2       10
## 3 Derrick Whitmore         3        9
## 4 Katherine Burke          1        4

who1 <- who %>%
  gather(new_sp_m014:newrel_f65, key = "key", value = "cases", na.rm = TRUE)

who1 %>%
  count(key)

## # A tibble: 56 x 2
##    key              n
##    <chr>        <int>
##  1 new_ep_f014   1032
##  2 new_ep_f1524  1021
##  3 new_ep_f2534  1021
##  4 new_ep_f3544  1021
##  5 new_ep_f4554  1017
##  6 new_ep_f5564  1017
##  7 new_ep_f65    1014
##  8 new_ep_m014   1038
##  9 new_ep_m1524  1026
## 10 new_ep_m2534  1020
## # ... with 46 more rows

who2 <- who1 %>%
  mutate(key = stringr::str_replace(key, "newrel", "new_rel"))

who2

## # A tibble: 76,046 x 6
##    country     iso2  iso3   year key         cases
##    <chr>       <chr> <chr> <int> <chr>       <int>
##  1 Afghanistan AF    AFG    1997 new_sp_m014     0
##  2 Afghanistan AF    AFG    1998 new_sp_m014    30
##  3 Afghanistan AF    AFG    1999 new_sp_m014     8
##  4 Afghanistan AF    AFG    2000 new_sp_m014    52
##  5 Afghanistan AF    AFG    2001 new_sp_m014   129
##  6 Afghanistan AF    AFG    2002 new_sp_m014    90
##  7 Afghanistan AF    AFG    2003 new_sp_m014   127
##  8 Afghanistan AF    AFG    2004 new_sp_m014   139
##  9 Afghanistan AF    AFG    2005 new_sp_m014   151
## 10 Afghanistan AF    AFG    2006 new_sp_m014   193
## # ... with 76,036 more rows

who3 <- who2 %>%
  separate(key,c("new","type","sexage"), sep = "_")

who3

## # A tibble: 76,046 x 8
##    country     iso2  iso3   year new   type  sexage cases
##    <chr>       <chr> <chr> <int> <chr> <chr> <chr>  <int>
##  1 Afghanistan AF    AFG    1997 new   sp    m014       0
##  2 Afghanistan AF    AFG    1998 new   sp    m014      30
##  3 Afghanistan AF    AFG    1999 new   sp    m014       8
##  4 Afghanistan AF    AFG    2000 new   sp    m014      52
##  5 Afghanistan AF    AFG    2001 new   sp    m014     129
##  6 Afghanistan AF    AFG    2002 new   sp    m014      90
##  7 Afghanistan AF    AFG    2003 new   sp    m014     127
##  8 Afghanistan AF    AFG    2004 new   sp    m014     139
##  9 Afghanistan AF    AFG    2005 new   sp    m014     151
## 10 Afghanistan AF    AFG    2006 new   sp    m014     193
## # ... with 76,036 more rows
…
## # A tibble: 1 x 2
##   new       n
##   <chr> <int>
## 1 new   76046

who4 <- who3 %>%
  select(-new, -iso2, -iso3)

who5 <- who4 %>%
  separate(sexage, c("sex","age"), sep = 1)

who5

## # A tibble: 76,046 x 6
##    country      year type  sex   age   cases
##    <chr>       <int> <chr> <chr> <chr> <int>
##  1 Afghanistan  1997 sp    m     014       0
##  2 Afghanistan  1998 sp    m     014      30
##  3 Afghanistan  1999 sp    m     014       8
##  4 Afghanistan  2000 sp    m     014      52
##  5 Afghanistan  2001 sp    m     014     129
##  6 Afghanistan  2002 sp    m     014      90
##  7 Afghanistan  2003 sp    m     014     127
##  8 Afghanistan  2004 sp    m     014     139
##  9 Afghanistan  2005 sp    m     014     151
## 10 Afghanistan  2006 sp    m     014     193
## # ... with 76,036 more rows
…
## # A tibble: 3 x 6
##    year month   day  hour origin     n
##   <dbl> <dbl> <int> <int> <chr>  <int>
## 1  2013    11     3     1 EWR        2
## 2  2013    11     3     1 JFK        2
## 3  2013    11     3     1 LGA        2

flights2 <- flights %>%
  select(year:day, hour, origin, dest, tailnum, carrier)

flights2 

## # A tibble: 336,776 x 8
##     year month   day  hour origin dest  tailnum carrier
##    <int> <int> <int> <dbl> <chr>  <chr> <chr>   <chr>  
##  1  2013     1     1     5 EWR    IAH   N14228  UA     
##  2  2013     1     1     5 LGA    IAH   N24211  UA     
##  3  2013     1     1     5 JFK    MIA   N619AA  AA     
##  4  2013     1     1     5 JFK    BQN   N804JB  B6     
##  5  2013     1     1     6 LGA    ATL   N668DN  DL     
##  6  2013     1     1     5 EWR    ORD   N39463  UA     
##  7  2013     1     1     6 EWR    FLL   N516JB  B6     
##  8  2013     1     1     6 LGA    IAD   N829AS  EV     
##  9  2013     1     1     6 JFK    MCO   N593JB  B6     
## 10  2013     1     1     6 LGA    ORD   N3ALAA  AA     
## # ... with 336,766 more rows

flights2 %>%
  select(-origin, -dest) %>%
  left_join(airlines, by = "carrier")

## # A tibble: 336,776 x 7
##     year month   day  hour tailnum carrier name                    
##    <int> <int> <int> <dbl> <chr>   <chr>   <chr>                   
##  1  2013     1     1     5 N14228  UA      United Air Lines Inc.   
##  2  2013     1     1     5 N24211  UA      United Air Lines Inc.   
##  3  2013     1     1     5 N619AA  AA      American Airlines Inc.  
##  4  2013     1     1     5 N804JB  B6      JetBlue Airways         
##  5  2013     1     1     6 N668DN  DL      Delta Air Lines Inc.    
##  6  2013     1     1     5 N39463  UA      United Air Lines Inc.   
##  7  2013     1     1     6 N516JB  B6      JetBlue Airways         
##  8  2013     1     1     6 N829AS  EV      ExpressJet Airlines Inc.
##  9  2013     1     1     6 N593JB  B6      JetBlue Airways         
## 10  2013     1     1     6 N3ALAA  AA      American Airlines Inc.  
## # ... with 336,766 more rows

flights2 %>%
  select(-origin, -dest) %>%
  mutate(name = airlines$name[match(carrier, airlines$carrier)])

## # A tibble: 336,776 x 7
##     year month   day  hour tailnum carrier name                    
##    <int> <int> <int> <dbl> <chr>   <chr>   <chr>                   
##  1  2013     1     1     5 N14228  UA      United Air Lines Inc.   
##  2  2013     1     1     5 N24211  UA      United Air Lines Inc.   
##  3  2013     1     1     5 N619AA  AA      American Airlines Inc.  
##  4  2013     1     1     5 N804JB  B6      JetBlue Airways         
##  5  2013     1     1     6 N668DN  DL      Delta Air Lines Inc.    
##  6  2013     1     1     5 N39463  UA      United Air Lines Inc.   
##  7  2013     1     1     6 N516JB  B6      JetBlue Airways         
##  8  2013     1     1     6 N829AS  EV      ExpressJet Airlines Inc.
##  9  2013     1     1     6 N593JB  B6      JetBlue Airways         
## 10  2013     1     1     6 N3ALAA  AA      American Airlines Inc.  
## # ... with 336,766 more rows

flights2 %>%
  left_join(airports, c("dest" = "faa")) %>%
  arrange(origin)

## # A tibble: 336,776 x 15
##     year month   day  hour origin dest  tailnum carrier name    lat    lon
##    <int> <int> <int> <dbl> <chr>  <chr> <chr>   <chr>   <chr> <dbl>  <dbl>
##  1  2013     1     1     5 EWR    IAH   N14228  UA      Geor…  30.0  -95.3
##  2  2013     1     1     5 EWR    ORD   N39463  UA      Chic…  42.0  -87.9
##  3  2013     1     1     6 EWR    FLL   N516JB  B6      Fort…  26.1  -80.2
##  4  2013     1     1     6 EWR    SFO   N53441  UA      San …  37.6 -122. 
##  5  2013     1     1     6 EWR    LAS   N76515  UA      Mc C…  36.1 -115. 
##  6  2013     1     1     6 EWR    PBI   N644JB  B6      Palm…  26.7  -80.1
##  7  2013     1     1     6 EWR    MIA   N633AA  AA      Miam…  25.8  -80.3
##  8  2013     1     1     6 EWR    MIA   N53442  UA      Miam…  25.8  -80.3
##  9  2013     1     1     6 EWR    ORD   N9EAMQ  MQ      Chic…  42.0  -87.9
## 10  2013     1     1     6 EWR    ATL   N326NB  DL      Hart…  33.6  -84.4
## # ... with 336,766 more rows, and 4 more variables: alt <int>, tz <dbl>,
## #   dst <chr>, tzone <chr>

flights2 %>%
  left_join(airports, c("origin" = "faa")) %>%
  arrange(origin)

## # A tibble: 336,776 x 15
##     year month   day  hour origin dest  tailnum carrier name    lat   lon
##    <int> <int> <int> <dbl> <chr>  <chr> <chr>   <chr>   <chr> <dbl> <dbl>
##  1  2013     1     1     5 EWR    IAH   N14228  UA      Newa…  40.7 -74.2
##  2  2013     1     1     5 EWR    ORD   N39463  UA      Newa…  40.7 -74.2
##  3  2013     1     1     6 EWR    FLL   N516JB  B6      Newa…  40.7 -74.2
##  4  2013     1     1     6 EWR    SFO   N53441  UA      Newa…  40.7 -74.2
##  5  2013     1     1     6 EWR    LAS   N76515  UA      Newa…  40.7 -74.2
##  6  2013     1     1     6 EWR    PBI   N644JB  B6      Newa…  40.7 -74.2
##  7  2013     1     1     6 EWR    MIA   N633AA  AA      Newa…  40.7 -74.2
##  8  2013     1     1     6 EWR    MIA   N53442  UA      Newa…  40.7 -74.2
##  9  2013     1     1     6 EWR    ORD   N9EAMQ  MQ      Newa…  40.7 -74.2
## 10  2013     1     1     6 EWR    ATL   N326NB  DL      Newa…  40.7 -74.2
## # ... with 336,766 more rows, and 4 more variables: alt <int>, tz <dbl>,
## #   dst <chr>, tzone <chr>
…
top_dest <- flights %>%
  count(dest, sort = TRUE) %>%
  left_join(airports, c("dest" = "faa"))

top_dest

## # A tibble: 105 x 9
##    dest      n name                lat    lon   alt    tz dst   tzone     
##    <chr> <int> <chr>             <dbl>  <dbl> <int> <dbl> <chr> <chr>     
##  1 ORD   17283 Chicago Ohare In…  42.0  -87.9   668    -6 A     America/C…
##  2 ATL   17215 Hartsfield Jacks…  33.6  -84.4  1026    -5 A     America/N…
##  3 LAX   16174 Los Angeles Intl   33.9 -118.    126    -8 A     America/L…
##  4 BOS   15508 General Edward L…  42.4  -71.0    19    -5 A     America/N…
##  5 MCO   14082 Orlando Intl       28.4  -81.3    96    -5 A     America/N…
##  6 CLT   14064 Charlotte Dougla…  35.2  -80.9   748    -5 A     America/N…
##  7 SFO   13331 San Francisco In…  37.6 -122.     13    -8 A     America/L…
##  8 FLL   12055 Fort Lauderdale …  26.1  -80.2     9    -5 A     America/N…
##  9 MIA   11728 Miami Intl         25.8  -80.3     8    -5 A     America/N…
## 10 DCA    9705 Ronald Reagan Wa…  38.9  -77.0    15    -5 A     America/N…
## # ... with 95 more rows

flights %>%
  filter(dest %in% top_dest$dest)

## # A tibble: 336,776 x 19
##     year month   day dep_time sched_dep_time dep_delay arr_time
##    <int> <int> <int>    <int>          <int>     <dbl>    <int>
##  1  2013     1     1      517            515         2      830
##  2  2013     1     1      533            529         4      850
##  3  2013     1     1      542            540         2      923
##  4  2013     1     1      544            545        -1     1004
##  5  2013     1     1      554            600        -6      812
##  6  2013     1     1      554            558        -4      740
##  7  2013     1     1      555            600        -5      913
##  8  2013     1     1      557            600        -3      709
##  9  2013     1     1      557            600        -3      838
## 10  2013     1     1      558            600        -2      753
## # ... with 336,766 more rows, and 12 more variables: sched_arr_time <int>,
## #   arr_delay <dbl>, carrier <chr>, flight <int>, tailnum <chr>,
## #   origin <chr>, dest <chr>, air_time <dbl>, distance <dbl>, hour <dbl>,
## #   minute <dbl>, time_hour <dttm>
…
